…
``` r
glance(standings_lm)
```

    ## # A tibble: 1 x 11
    ##   r.squared adj.r.squared sigma statistic  p.value    df logLik   AIC   BIC
    ##       <dbl>         <dbl> <dbl>     <dbl>    <dbl> <int>  <dbl> <dbl> <dbl>
    ## 1     0.959         0.958  2.84      663. 4.91e-21     2  -72.9  152.  156.
    ## # ... with 2 more variables: deviance <dbl>, df.residual <int>

``` r
augment(standings_lm)
```

    ## # A tibble: 30 x 9
    ##        W PDiff.G .fitted .se.fit .resid   .hat .sigma   .cooksd .std.resid
    ##    <int>   <dbl>   <dbl>   <dbl>  <dbl>  <dbl>  <dbl>     <dbl>      <dbl>
    ##  1    57   6        56.9   0.805  0.146 0.0802   2.90 0.000125      0.0536
    ##  2    56   4.5      52.9   0.695  3.11  0.0597   2.83 0.0402        1.13  
    ##  3    48   1.60     45.2   0.545  2.76  0.0367   2.85 0.0186        0.988 
    ##  4    48   3.60     50.5   0.637 -2.52  0.0502   2.85 0.0218       -0.909 
    ##  5    48   3.2      49.5   0.615 -1.46  0.0467   2.88 0.00680      -0.527 
    ##  6    48   2.7      48.1   0.589 -0.144 0.0428   2.90 0.0000598    -0.0517
    ##  7    45   1.7      45.5   0.548 -0.505 0.0371   2.89 0.000630     -0.181 
    ##  8    44   0.600    42.6   0.523  1.40  0.0338   2.88 0.00438       0.500 
    ##  9    42  -1.5      37.1   0.541  4.94  0.0362   2.73 0.0589        1.77  
    ## 10    41  -0.5      39.7   0.522  1.30  0.0336   2.89 0.00378       0.466 
    ## # ... with 20 more rows
…
